Processing Large Dataset with R
…
How many variables ?

## [1] "The dataset contains  10  variables"

Lets keep exploring the dataset and only display data from the diamonds dataset that have a cut value of Fair

diamonds %>% 
  filter(cut == 'Fair')

## # A tibble: 1,610 x 10
##    carat cut   color clarity depth table price     x     y     z
##    <dbl> <ord> <ord> <ord>   <dbl> <dbl> <int> <dbl> <dbl> <dbl>
##  1  0.22 Fair  E     VS2      65.1    61   337  3.87  3.78  2.49
##  2  0.86 Fair  E     SI2      55.1    69  2757  6.45  6.33  3.52
##  3  0.96 Fair  F     SI2      66.3    62  2759  6.27  5.95  4.07
##  4  0.7  Fair  F     VS2      64.5    57  2762  5.57  5.53  3.58
##  5  0.7  Fair  F     VS2      65.3    55  2762  5.63  5.58  3.66
##  6  0.91 Fair  H     SI2      64.4    57  2763  6.11  6.09  3.93
##  7  0.91 Fair  H     SI2      65.7    60  2763  6.03  5.99  3.95
##  8  0.98 Fair  H     SI2      67.9    60  2777  6.05  5.97  4.08
##  9  0.84 Fair  G     SI1      55.1    67  2782  6.39  6.2   3.47
## 10  1.01 Fair  E     I1       64.5    58  2788  6.29  6.21  4.03
## #  with 1,600 more rows

Only display data from diamonds that have a cut value of Fair or Good and a price at or under $600

diamonds %>%
  filter((cut == 'Fair' | cut == 'Good') & price <= 600 )

## # A tibble: 505 x 10
##    carat cut   color clarity depth table price     x     y     z
##    <dbl> <ord> <ord> <ord>   <dbl> <dbl> <int> <dbl> <dbl> <dbl>
##  1  0.23 Good  E     VS1      56.9    65   327  4.05  4.07  2.31
##  2  0.31 Good  J     SI2      63.3    58   335  4.34  4.35  2.75
##  3  0.22 Fair  E     VS2      65.1    61   337  3.87  3.78  2.49
##  4  0.3  Good  J     SI1      64      55   339  4.25  4.28  2.73
##  5  0.3  Good  J     SI1      63.4    54   351  4.23  4.29  2.7 
##  6  0.3  Good  J     SI1      63.8    56   351  4.23  4.26  2.71
##  7  0.3  Good  I     SI2      63.3    56   351  4.26  4.3   2.71
##  8  0.23 Good  F     VS1      58.2    59   402  4.06  4.08  2.37
##  9  0.23 Good  E     VS1      64.1    59   402  3.83  3.85  2.46
## 10  0.31 Good  H     SI1      64      54   402  4.29  4.31  2.75
## #  with 495 more rows
Calculate the mean price of all the diamonds

moyenne <- diamonds %>%
  summarize(mean(price))
moyenne <- round(moyenne, digits = 2)
print(paste('The mean price of all the diamonds is ', moyenne, '$'))

## [1] "The mean price of all the diamonds is  3932.8 $"

Groups data by color and clarity variables

diamonds %>%
  group_by(color, clarity)

## # A tibble: 53,940 x 10
## # Groups:   color, clarity [56]
##    carat cut       color clarity depth table price     x     y     z
##    <dbl> <ord>     <ord> <ord>   <dbl> <dbl> <int> <dbl> <dbl> <dbl>
##  1 0.23  Ideal     E     SI2      61.5    55   326  3.95  3.98  2.43
##  2 0.21  Premium   E     SI1      59.8    61   326  3.89  3.84  2.31
##  3 0.23  Good      E     VS1      56.9    65   327  4.05  4.07  2.31
##  4 0.290 Premium   I     VS2      62.4    58   334  4.2   4.23  2.63
##  5 0.31  Good      J     SI2      63.3    58   335  4.34  4.35  2.75
##  6 0.24  Very Good J     VVS2     62.8    57   336  3.94  3.96  2.48
##  7 0.24  Very Good I     VVS1     62.3    57   336  3.95  3.98  2.47
##  8 0.26  Very Good H     SI1      61.9    55   337  4.07  4.11  2.53
##  9 0.22  Fair      E     VS2      65.1    61   337  3.87  3.78  2.49
## 10 0.23  Very Good H     VS1      59.4    61   338  4     4.05  2.39
## #  with 53,930 more rows

Creates new variable ( average price by groups)

diamonds %>%
  group_by(color, clarity) %>%
  transmute(average_price_by_group = mean(price))

## # A tibble: 53,940 x 3
## # Groups:   color, clarity [56]
##    color clarity average_price_by_group
##    <ord> <ord>                    <dbl>
##  1 E     SI2                      4174.
##  2 E     SI1                      3162.
##  3 E     VS1                      2856.
##  4 I     VS2                      5691.
##  5 J     SI2                      6521.
##  6 J     VVS2                     5142.
##  7 I     VVS1                     2035.
##  8 H     SI1                      5032.
##  9 E     VS2                      2751.
## 10 H     VS1                      3781.
## #  with 53,930 more rows

Visualize data ordered by color

diamonds %>% 
  arrange(color)

## # A tibble: 53,940 x 10
##    carat cut       color clarity depth table price     x     y     z
##    <dbl> <ord>     <ord> <ord>   <dbl> <dbl> <int> <dbl> <dbl> <dbl>
##  1  0.23 Very Good D     VS2      60.5    61   357  3.96  3.97  2.4 
##  2  0.23 Very Good D     VS1      61.9    58   402  3.92  3.96  2.44
##  3  0.26 Very Good D     VS2      60.8    59   403  4.13  4.16  2.52
##  4  0.26 Good      D     VS2      65.2    56   403  3.99  4.02  2.61
##  5  0.26 Good      D     VS1      58.4    63   403  4.19  4.24  2.46
##  6  0.22 Premium   D     VS2      59.3    62   404  3.91  3.88  2.31
##  7  0.3  Premium   D     SI1      62.6    59   552  4.23  4.27  2.66
##  8  0.3  Ideal     D     SI1      62.5    57   552  4.29  4.32  2.69
##  9  0.3  Ideal     D     SI1      62.1    56   552  4.3   4.33  2.68
## 10  0.24 Very Good D     VVS1     61.5    60   553  3.97  4     2.45
## #  with 53,930 more rows

Count the numbers of values for each cut and color

diamonds %>%
  count(cut, color)

## # A tibble: 35 x 3
##    cut   color     n
##    <ord> <ord> <int>
##  1 Fair  D       163
##  2 Fair  E       224
##  3 Fair  F       312
##  4 Fair  G       314
##  5 Fair  H       303
##  6 Fair  I       175
##  7 Fair  J       119
##  8 Good  D       662
##  9 Good  E       933
## 10 Good  F       909
## #  with 25 more rows
…
Select the destination, duration and distance columns (dest, dep_time, distance)

data <- flights %>%
  select(dest, dep_time, distance)

Add the arrival delay(arr_delay) and departure delay(dep_delay) columns as well

data <- bind_cols(data, arr_delay = flights$arr_delay, dep_delay = flights$dep_delay)

flights to Boston (BOS):

data %>%
  filter(dest == 'BOS')

## # A tibble: 15,508 x 5
##    dest  dep_time distance arr_delay dep_delay
##    <chr>    <int>    <dbl>     <dbl>     <dbl>
##  1 BOS        559      187        -4         0
##  2 BOS        639      187       -10        -1
##  3 BOS        801      200       -19        -4
##  4 BOS        803      187       -22        -7
##  5 BOS        820      187       -14       -10
##  6 BOS        923      187        -4         4
##  7 BOS        957      200       123       144
##  8 BOS       1033      200        -6        16
##  9 BOS       1154      200       -13        -6
## 10 BOS       1237      187       -10        -8
## #  with 15,498 more rows
…
flights %>%
  mutate(date = make_date(year, month, day)) %>%
  group_by(date) %>%
  summarize(flight_number = n())

## # A tibble: 365 x 2
##    date       flight_number
##    <date>             <int>
##  1 2013-01-01           842
##  2 2013-01-02           943
##  3 2013-01-03           914
##  4 2013-01-04           915
##  5 2013-01-05           720
##  6 2013-01-06           832
##  7 2013-01-07           933
##  8 2013-01-08           899
##  9 2013-01-09           902
## 10 2013-01-10           932
## #  with 355 more rows
…
